[
  {
    "productId": "1c891076-1399-4620-a907-ab83fda27fb1",
    "title": "IPhone 11 Spingen Mavi Pro Max Kılıf",
    "isActive": true
  },
  {
    "productId": "f17b177d-0dc0-41ee-9343-83a13ed74b93",
    "title": "IPhone 11 128 GB Cep telefonu",
    "isActive": true
  },
  {
    "productId": "f492d5a7-4fee-440f-801b-e4620da32596",
    "title": "IPhone 11 Pro Max Silikon Siyah Kılıf",
    "isActive": true
  }
]